Blog post7 – MA [46]15 Final Project Group 3
…
field_race_summary <- education_cohort_combined_data1 |>
  group_by(CIPDESC) |>
  summarise(
    Avg_White = weighted.mean(PCT_WHITE, EARN_COUNT_WNE_5YR, na.rm = TRUE),
    Avg_Black = weighted.mean(PCT_BLACK, EARN_COUNT_WNE_5YR, na.rm = TRUE),
    Avg_Hispanic = weighted.mean(PCT_HISPANIC, EARN_COUNT_WNE_5YR, na.rm = TRUE),
    Avg_Asian = weighted.mean(PCT_ASIAN, EARN_COUNT_WNE_5YR, na.rm = TRUE),
    Avg_Earnings = mean(EARN_MDN_5YR, na.rm = TRUE)
  ) |>
  arrange(desc(Avg_Earnings))

field_race_summary

# A tibble: 198 × 6
   CIPDESC               Avg_White Avg_Black Avg_Hispanic Avg_Asian Avg_Earnings
   <chr>                     <dbl>     <dbl>        <dbl>     <dbl>        <dbl>
 1 Advanced/Graduate De…      77.2      9.20        10.1       6.45      241981 
 2 Statistics.                74.1     10.3         11.9       7.40      229811 
 3 Applied Mathematics.       74.1     10.3         11.9       7.40      178318 
 4 Dentistry.                 80.4      7.80         8.67      5.64      164715.
 5 Systems Engineering.       80.7      7.02        10.5       5.63      164194 
 6 Computer Science.          82.8      6.36         8.16      4.89      155370.
 7 Human Computer Inter…      85.6      5.47         6.12      4.16      152624.
 8 Computer Engineering.      83.7      6.09         7.31      4.69      146994.
 9 Engineering-Related …      86.3      5.51         5.72      3.57      139144.
10 Taxation.                  86.2      5.25         5.69      3.85      134286.
# ℹ 188 more rows
…
